{"total_results": 10000, "page": 1, "total_pages": 500, "results": [{"original_title": "Greenland", "poster_path": "/ltlKaXvIHMTOgxqVbZSGUqcExuN.jpg", "video": false, "vote_average": 7.2, "vote_count": 706, "release_date": "2020-07-29", "title": "Greenland: el \u00faltimo refugio", "popularity": 1039.417, "adult": false, "backdrop_path": "/2Fk3AB8E9dYIBc2ywJkxk8BTyhc.jpg", "overview": "Un matrimonio a punto de separarse debe tratar de garantizar la seguridad de su hijo y ellos mismos cuando una cat\u00e1strofe se avecina hacia el planeta. Un objeto del espacio est\u00e1 a punto de colisionar con la Tierra y esta familia es escogida para entrar en un b\u00fanker subterr\u00e1neo. Sin embargo, tienen poco tiempo. Tan solo cuentan con 48 horas antes de que el mundo que conocen se destruya para siempre.", "genre_ids": [28, 53], "id": 524047, "original_language": "en"}, {"original_title": "\ubc18\ub3c4", "poster_path": "/9QMfEI0foj2R0uub11jVPCsWFAt.jpg", "video": false, "vote_average": 7, "vote_count": 821, "release_date": "2020-07-15", "title": "Train To Busan 2: Peninsula", "popularity": 1016.309, "adult": false, "backdrop_path": "/gEjNlhZhyHeto6Fy5wWy5Uk3A9D.jpg", "overview": "Cuatro a\u00f1os despu\u00e9s de la epidemia zombie, Corea sigue infestada de monstruos y el soldado Jung-seok, que escap\u00f3 del pa\u00eds, se ve obligado a regresar a Se\u00fal para recuperar un objeto valioso. All\u00ed descubre que hay, todav\u00eda, personas sanas en la ciudad. Continuaci\u00f3n de la aclamada pel\u00edcula de zombis \"Train to Busan\".", "genre_ids": [28, 27, 53], "id": 581392, "original_language": "ko"}, {"original_title": "The SpongeBob Movie: Sponge on the Run", "poster_path": "/sp9fYcVbUHDFgGZpLvCSJsplfbd.jpg", "video": false, "vote_average": 8, "overview": "Los amigos son lo m\u00e1s importante para Bob Esponja, por lo que no dudar\u00e1 en salir de la comodidad de su hogar en Fondo de Bikini, junto con Patricio, para adentrarse en un mundo desconocido, arriesgando sus vidas, para salvar a su amigo de la infancia, Gary, de las garras del rey Poseid\u00f3n que le ha secuestrado en la Ciudad Perdida de la Atlantida. \u00bfSer\u00e1n capaces de lograrlo?", "release_date": "2020-08-14", "title": "Bob Esponja: Un h\u00e9roe al rescate", "popularity": 847.887, "adult": false, "id": 400160, "backdrop_path": "/wu1uilmhM4TdluKi2ytfz8gidHf.jpg", "genre_ids": [16, 14, 12, 35, 10751], "vote_count": 1573, "original_language": "en"}, {"original_title": "Mulan", "poster_path": "/rd7ElSRYhN2CFqMcyH8rqrwLbd6.jpg", "video": false, "vote_average": 7.2, "vote_count": 3035, "release_date": "2020-09-04", "title": "Mul\u00e1n", "popularity": 767.744, "adult": false, "backdrop_path": "/qAKvUu2FSaDlnqznY4VOp5PmjIF.jpg", "overview": "El emperador de China emite un decreto para reclutar a un var\u00f3n por cada familia que deber\u00e1 servir en el ej\u00e9rcito imperial para defender al pa\u00eds de los invasores del norte. Hua Mul\u00e1n, hija \u00fanica de un condecorado guerrero, se presenta para evitar que su anciano padre sea llamado a filas. Se hace pasar por un hombre, Hua Jun y se somete a todo tipo de pruebas. Para conseguirlo deber\u00e1 apelar a su fuerza interior y sacar a la luz todo su potencial. Se trata de una aventura \u00e9pica que la transformar\u00e1 en una guerrera laureada que la har\u00e1 merecedora del respeto de todo un pa\u00eds y motivo de orgullo para su padre.", "genre_ids": [28, 12, 18, 14], "id": 337401, "original_language": "en"}, {"original_title": "Welcome to Sudden Death", "poster_path": "/elZ6JCzSEvFOq4gNjNeZsnRFsvj.jpg", "video": false, "vote_average": 6.4, "vote_count": 173, "release_date": "2020-09-29", "title": "Welcome to Sudden Death", "popularity": 753.44, "adult": false, "id": 741067, "backdrop_path": "/aO5ILS7qnqtFIprbJ40zla0jhpu.jpg", "genre_ids": [28, 53, 12, 18], "overview": "Jesse Freeman es un ex oficial de las fuerzas especiales y experto en explosivos que ahora tiene un trabajo regular como guardia de seguridad en un estadio de baloncesto de \u00faltima generaci\u00f3n. Los problemas surgen cuando un grupo de terroristas expertos en tecnolog\u00eda secuestra al propietario del equipo y a la hija de Jesse durante la noche de apertura. Enfrentando un reloj en marcha y probabilidades imposibles, depende de Jesse no solo salvarlos, sino tambi\u00e9n a una casa llena de fan\u00e1ticos en este thriller de acci\u00f3n altamente cargado.", "original_language": "en"}, {"original_title": "After We Collided", "poster_path": "/5pg2rn4SM47B6Orc1xWXZ3MAVUc.jpg", "video": false, "vote_average": 7.3, "vote_count": 2139, "release_date": "2020-09-02", "title": "After: En mil pedazos", "popularity": 658.807, "adult": false, "id": 613504, "backdrop_path": "/6hgItrYQEG33y0I7yP2SRl2ei4w.jpg", "genre_ids": [10749, 18], "overview": "Ha pasado el tiempo, y Hardin todav\u00eda no se sabe si es realmente el chico profundo y reflexivo del que Tessa se enamor\u00f3, o ha sido un extra\u00f1o todo este tiempo. Ella quiere alejarse, pero no es tan f\u00e1cil. Tessa se ha centrado en sus estudios y comienza a trabajar como becaria en Vance Publishing. All\u00ed conoce a Trevor, un nuevo y atractivo compa\u00f1ero de trabajo que es exactamente el tipo de persona con la que deber\u00eda estar. Pero Hardin sabe que cometi\u00f3 un error, posiblemente el m\u00e1s grande de su vida y quiere corregir sus errores y vencer a sus demonios.", "original_language": "en"}, {"original_title": "Enola Holmes", "poster_path": "/8STWO9pUTqubPV04iXZ2R6SClME.jpg", "video": false, "vote_average": 7.5, "vote_count": 2730, "release_date": "2020-09-23", "title": "Enola Holmes", "popularity": 654.827, "adult": false, "backdrop_path": "/kMe4TKMDNXTKptQPAdOF0oZHq3V.jpg", "id": 497582, "genre_ids": [80, 18, 9648], "overview": "Enola Holmes, una intr\u00e9pida joven que busca a su madre, utiliza su brillante instinto investigador para superar a su hermano Sherlock y ayudar a un lord en su fuga.", "original_language": "en"}, {"original_title": "Ava", "poster_path": "/qzA87Wf4jo1h8JMk9GilyIYvwsA.jpg", "video": false, "vote_average": 5.6, "vote_count": 674, "release_date": "2020-07-02", "title": "Ava", "popularity": 578.15, "adult": false, "id": 539885, "overview": "Ava es una mort\u00edfera asesina a sueldo que trabaja para una organizaci\u00f3n de operaciones encubiertas, que viaja por todo el mundo acabando con aquellos objetivos que nadie m\u00e1s puede derribar. Cuando uno de sus encargos sale mal, Ava tendr\u00e1 que luchar por una vida.", "genre_ids": [28, 80, 18, 53], "backdrop_path": "/54yOImQgj8i85u9hxxnaIQBRUuo.jpg", "original_language": "en"}, {"original_title": "Money Plane", "poster_path": "/v0BiswYPEZzZTYazvwktPTOTMpP.jpg", "video": false, "vote_average": 5.8, "vote_count": 196, "release_date": "2020-09-29", "title": "El avi\u00f3n del dinero", "popularity": 529.098, "adult": false, "backdrop_path": "/pq0JSpwyT2URytdFG0euztQPAyR.jpg", "id": 694919, "genre_ids": [28], "overview": "Un ladr\u00f3n profesional con una deuda de 40 millones de d\u00f3lares a sus espaldas y la vida de su familia en peligro, se ve obligado a realizar un \u00faltimo golpe: robar un futurista casino a\u00e9reo cuya que tiene por clientes a los criminales m\u00e1s peligrosos del mundo.", "original_language": "en"}, {"original_title": "The New Mutants", "poster_path": "/pBWrc52L3NmJLMZwfLzmP61ZO3.jpg", "video": false, "vote_average": 6.4, "vote_count": 881, "release_date": "2020-08-26", "title": "Los nuevos mutantes", "popularity": 491.111, "adult": false, "id": 340102, "backdrop_path": "/eCIvqa3QVCx6H09bdeOS8Al2Sqy.jpg", "genre_ids": [28, 878, 27, 12], "overview": "Cinco j\u00f3venes mutantes que acaban de descubrir sus habilidades, son encerrados en unas instalaciones secretas contra su voluntad y luchan por escapar de su pasado y salvarse a s\u00ed mismos", "original_language": "en"}, {"original_title": "Rogue", "poster_path": "/uOw5JD8IlD546feZ6oxbIjvN66P.jpg", "video": false, "vote_average": 5.7, "vote_count": 376, "release_date": "2020-08-20", "title": "Rogue", "popularity": 432.932, "adult": false, "backdrop_path": "/x4UkhIQuHIJyeeOTdcbZ3t3gBSa.jpg", "id": 718444, "genre_ids": [28, 12, 18, 53], "overview": "Rogue es la historia de una peque\u00f1a unidad mercenaria de soldados que han sido contratados por el gobernador de un pa\u00eds africano para rescatar a su hija que ha sido secuestrada por una organizaci\u00f3n terrorista.", "original_language": "en"}, {"original_title": "Cuidado con lo que deseas", "poster_path": "/sp17ozqFVti2TALS2osPi1Jr5ma.jpg", "video": false, "vote_average": 7.6, "vote_count": 35, "release_date": "2020-04-24", "title": "Cuidado con lo que deseas", "popularity": 406.807, "adult": false, "id": 681429, "overview": "Pamela es una ni\u00f1a de ocho a\u00f1os que ama las pel\u00edculas de terror y los cuentos de hadas. Cuando su t\u00edo le regala una mu\u00f1eca llamada \"Hellequin\" como regalo de cumplea\u00f1os, una historia de traici\u00f3n comienza a desarrollarse ante sus ojos.", "genre_ids": [27], "backdrop_path": "/BVgXyHfMxyS1Xu8n48YTpyTpPM.jpg", "original_language": "es"}, {"original_title": "\u042f\u0433\u0430. \u041a\u043e\u0448\u043c\u0430\u0440 \u0442\u0451\u043c\u043d\u043e\u0433\u043e \u043b\u0435\u0441\u0430", "poster_path": "/2EjUq3eqvDKU4EXh482IQcttcx4.jpg", "video": false, "vote_average": 6.5, "vote_count": 60, "release_date": "2020-02-27", "title": "Baba Yaga: El regreso del demonio", "popularity": 396.317, "adult": false, "id": 575088, "overview": "La joven familia que se mud\u00f3 a un nuevo apartamento en las afueras de la ciudad. La ni\u00f1era contratada por ellos para la hija reci\u00e9n nacida r\u00e1pidamente gan\u00f3 confianza. Sin embargo, el ni\u00f1o mayor, Egor, habla del comportamiento aterrador de una mujer, pero sus padres no le creen. Las c\u00e1maras de vigilancia instaladas por el padre para mayor comodidad solo confirman que todo est\u00e1 en orden. Entonces, un d\u00eda, Egor, al regresar a casa, no encuentra rastro ni de la ni\u00f1era ni de la hermana peque\u00f1a, y los padres est\u00e1n en un trance extra\u00f1o y ni siquiera recuerdan que tuvieron una hija. Entonces Egor, junto con sus amigos, va en busca, durante la cual resulta que la ni\u00f1era es un antiguo demonio eslavo, conocido popularmente como Baba Yaga.", "genre_ids": [27], "backdrop_path": "/4br4B8C0SRIYcKHUgoaOlGo50MU.jpg", "original_language": "ru"}, {"original_title": "\u0412\u0442\u043e\u0440\u0436\u0435\u043d\u0438\u0435", "poster_path": "/bR3qO30eTx9Jhj5djWxwh67JCEJ.jpg", "video": false, "vote_average": 7, "vote_count": 435, "release_date": "2020-01-01", "title": "Invasi\u00f3n: El fin de los tiempos", "popularity": 394.061, "adult": false, "backdrop_path": "/sizHX5VbwlBihaathTQHVGk1jdi.jpg", "id": 514207, "genre_ids": [878], "overview": "Despu\u00e9s de la ca\u00edda de la nave alien\u00edgena, tom\u00f3 tres a\u00f1os. La cat\u00e1strofe cambi\u00f3 la vida de la ni\u00f1a de Chertanovo y cambi\u00f3 para siempre nuestra visi\u00f3n del universo. Parece que esta fue la prueba m\u00e1s grande para todos nosotros. Pero la humanidad a\u00fan no sabe que muy pronto tendr\u00e1 que experimentar una nueva reuni\u00f3n.", "original_language": "ru"}, {"original_title": "Becky", "poster_path": "/2Nfv9Y1DkwOZ1LnVqcHOdY59NfG.jpg", "video": false, "vote_average": 6.5, "vote_count": 119, "release_date": "2020-07-23", "title": "Becky", "popularity": 392.961, "adult": false, "id": 601844, "overview": "El fin de semana de una adolescente en una casa del lago con su padre empeora cuando un grupo de convictos causa estragos en sus vidas.", "genre_ids": [28, 80, 18, 53], "backdrop_path": "/qTrpw2ZUvN7ywUu1kieEsvNDrgQ.jpg", "original_language": "en"}, {"original_title": "Artemis Fowl", "poster_path": "/mhDdx7o7hhrxrikq8aqPLLnS9w8.jpg", "video": false, "vote_average": 5.8, "vote_count": 953, "release_date": "2020-06-12", "title": "Artemis Fowl - El mundo subterr\u00e1neo", "popularity": 381.294, "adult": false, "id": 475430, "overview": "La historia de 'Artemis Fowl' es la de un ni\u00f1o de 12 a\u00f1os de edad que est\u00e1 a punto de arrebatar el poder al mundo subterr\u00e1neo. Lo que \u00e9l todav\u00eda no sabe es que sus habitantes: hadas, duendes, elfos... no son las criaturas maravillosas que siempre hemos imaginado y no van a consentir que un humano conozca sus secretos m\u00e1s sagrados. Como \u00e9l, van armados hasta las barbas y conocen las \u00faltimas tecnolog\u00edas: se prepara un trepidante duelo que puede provocar una aut\u00e9ntica guerra entre las especies del planeta.", "genre_ids": [12, 14, 878, 10751, 28], "backdrop_path": "/o0F8xAt8YuEm5mEZviX5pEFC12y.jpg", "original_language": "en"}, {"original_title": "Heavenquest: A Pilgrim's Progress", "poster_path": "/cLDPLia17AwMqSaRHccyAlInkch.jpg", "video": false, "vote_average": 6.5, "vote_count": 25, "release_date": "2020-07-13", "title": "Heavenquest: A Pilgrim's Progress", "popularity": 377.584, "adult": false, "id": 634244, "overview": "Inspirado en la novela de 1678 The Pilgrim's Progress y una precuela imaginaria de los escritos originales de Bunyan. Un hombre real llamado Vangel se ve obligado a emprender un viaje contra su voluntad cuando es arrestado repentina y misteriosamente. Herido y perdido despu\u00e9s de escapar de los hombres del rey oscuro, Vangel comienza a tener extra\u00f1os sue\u00f1os y visiones de una misteriosa mujer vestida de blanco que lo llama desde el territorio desconocido del Norte. Armado con un libro llamado \"El Registro de los Antiguos\" que recibe de un sabio llamado Elder, Vangel se embarca en una aventura que lo lleva a trav\u00e9s de una cadena monta\u00f1osa traicionera, desiertos interminables, el Lago de las Dudas y el Bosque Sin Retorno. En el camino, los compa\u00f1eros de viaje comparten sobre un legendario buen rey y su hijo en el norte si puede llegar con vida.", "genre_ids": [12, 14, 28], "backdrop_path": "/cw8A0SprTxr7uSfcH7lwSRRhezJ.jpg", "original_language": "en"}, {"original_title": "We Bare Bears: The Movie", "poster_path": "/kPzcvxBwt7kEISB9O4jJEuBn72t.jpg", "video": false, "vote_average": 7.8, "overview": "Cuando el amor de Grizz, Panda y Ice Bear por los camiones de comida y los videos virales se fue de las manos, llama la atenci\u00f3n del Agente Trout del National Wildlife Control, quien se compromete a restaurar el \"orden natural\" separ\u00e1ndolos para siempre. Alejados de su hogar, los Bears se embarcan en un viaje \u00e9pico por carretera mientras buscan refugio en Canad\u00e1, con su viaje lleno de nuevos amigos, obst\u00e1culos peligrosos y grandes fiestas. El arriesgado viaje tambi\u00e9n obliga a los Bears a enfrentar c\u00f3mo se conocieron y se convirtieron en hermanos, para evitar que su v\u00ednculo familiar se separe.", "release_date": "2020-06-30", "title": "Somos osos: La pel\u00edcula", "popularity": 353.53, "adult": false, "backdrop_path": "/pO1SnM5a1fEsYrFaVZW78Wb0zRJ.jpg", "id": 677638, "genre_ids": [10751, 16, 12, 35], "vote_count": 543, "original_language": "en"}, {"original_title": "Archive", "poster_path": "/eDnHgozW8vfOaLHzfpHluf1GZCW.jpg", "video": false, "vote_average": 5.8, "vote_count": 190, "release_date": "2020-08-13", "title": "Archivo", "popularity": 350.186, "adult": false, "backdrop_path": "/u9YEh2xVAPVTKoaMNlB5tH6pXkm.jpg", "id": 606234, "genre_ids": [878, 18, 14, 53], "overview": "2038: George Almore est\u00e1 trabajando en una verdadera IA equivalente a la humana. Su \u00faltimo prototipo est\u00e1 casi listo. Esta fase sensible tambi\u00e9n es la m\u00e1s arriesgada. Especialmente porque tiene un objetivo que debe ocultarse a toda costa: reunirse con su esposa muerta", "original_language": "en"}, {"original_title": "Battlefield 2025", "poster_path": "/w6e0XZreiyW4mGlLRHEG8ipff7b.jpg", "video": false, "vote_average": 5.9, "vote_count": 80, "release_date": "2020-07-07", "title": "Battlefield 2025", "popularity": 348.887, "adult": false, "id": 722603, "overview": "Unos campistas de fin de semana, un convicto fugitivo, unos j\u00f3venes amantes y un oficial de polic\u00eda experimentan una noche de terror cuando un visitante hostil de otro mundo desciende a un peque\u00f1o pueblo de Arizona.", "genre_ids": [28, 27, 878], "backdrop_path": "/m7QpUAeI2xTCJyAVl9J9z5dBTSb.jpg", "original_language": "en"}]}